1,Land,Grasslands
2,Land,Woods
3,Land,Forest
4,Land,Farmlands
5,Land,Mountain
6,Land,Highlands
7,Land,WoodsHills
8,Land,Marsh
9,Land,Hills
10,Land,Coastline
11,Land,Drylands
12,Land,Steppe
13,Land,HillsGrasslands
14,Land,Desert
15,Land,Coastal Desert
16,Land,Sea
17,Land,Savannah
18,Land,Jungle
19,Land,Glacier
20,Wasteland,Wasteland
21,Lake,Lake
22,Inland sea,Inland sea
23,Sea,Sea
24,Land,GlacierMountain
25,Land,DrylandsHighlands
26,Land,GrasslandsSteppe
27,Land,WoodsHighlands
28,Land,JungleSavannah 