1,Chinaware,3,6,6
2,Cloth,3,5,1
3,Cocoa,4,7,5
4,Coffee,3,7,5
5,Copper,3,3,2
6,Cotton,3,7,5
7,Dyes,4,5,3
8,Fish,2.5,2,1
9,Fur,2,4,1
10,Gems,4,6,3
11,Glass,3,6,4
12,Gold,4,2,4
13,Grain,2.5,1,1
14,Incense,2.5,4,6
15,Iron,3,3,2
16,Ivory,4,4,7
17,Livestock,2,1,1
18,Naval Supplies,2,2,1
19,Paper,3.5,6,4
20,Salt,3,2,1
21,Silk,4,5,3
22,Slaves,2,4,7
23,Spices,3,4,6
24,Sugar,3,7,5
25,Tea,2,7,6
26,Tobacco,3,7,5
27,Tropical Wood,2,6,3
28,Wine,2.5,1,1
29,Wool,2.5,5,1
