484,Havana,Important Natural Harbor,No Estate,0.75,2,0.1,0,0,0,17,108,9,33,258
490,Barahonas,Important Natural Harbor,No Estate,0,3,0.12,1,0,0,18,108,9,33,260
491,Curacao,Important Natural Harbor,No Estate,0.75,3,0.12,3,0,0,10,108,9,33,256
756,Bahia,Important Natural Harbor,No Estate,0.5,2,0.09,2,0,0,18,181,9,53,410
763,Rio de Janeiro,Important Natural Harbor,No Estate,0.5,1,0.05,1,0,0,18,181,9,53,413
775,Asuncion,Inland Center of Trade,No Estate,0,0,0.06,2,0,0,8,183,9,56,419
787,Picunmapu,Important Natural Harbor,Nobility,0,0,0.02,3,0,0,11,188,9,57,426
828,Cartagena,Important Natural Harbor,Burghers,0,3,0.03,1,0,0,18,180,9,62,449
835,Panama,Important Natural Harbor,No Estate,0.5,0,0.12,3,0,0,18,200,9,62,448
893,Chitimacha,Mississippi Estuary,No Estate,0.25,0,0.12,2,0,0,8,221,19,66,483
900,Tamaroa,Inland Center of Trade,No Estate,0,1,0.02,3,0,0,17,223,19,66,487
932,Santee,Santee Estuary,No Estate,0.75,3,0.08,2,0,0,17,231,19,68,501
950,Chesapeake,James Estuary,No Estate,0.75,2,0.03,3,0,0,8,235,19,68,509
965,Manhattan,Hudson Estuary,No Estate,0,1,0.09,3,0,0,2,238,19,68,515
968,Massachusetts,Important Natural Harbor,No Estate,0.25,2,0.03,2,0,0,2,240,19,68,516
993,Hochelaga,Inland Center of Trade,No Estate,0.75,3,0.06,0,0,0,3,236,19,69,532
994,Stadacona,Saint Lawrence Estuary,No Estate,0.75,1,0.11,3,0,0,9,236,19,69,529
1005,Muskegon,Nelson Estuary,No Estate,0.25,0,0.02,3,0,0,8,244,19,70,539
1008,Winnipeg,Inland Center of Trade,No Estate,0.25,1,0.11,1,0,0,17,226,19,70,540
1090,Eora,Important Natural Harbor,No Estate,0,1,0.11,1,0,0,6,259,9,71,572
1139,Gold Coast,Important Natural Harbor,No Estate,0,3,0.02,1,0,0,18,268,15,72,590
1177,Cape,Important Natural Harbor,No Estate,0,1,0.11,1,0,0,1,281,15,59,451
2021,Miwok,Important Natural Harbor,No Estate,0.25,0,0.05,2,0,0,17,212,19,64,471
2499,Coahuilteco,Rio Grande Estuary,Tribes,0.75,0,0.11,2,0,0,12,211,19,65,466
2555,Honniasont,Inland Center of Trade,No Estate,0.25,3,0.06,0,0,0,9,237,19,67,512
2934,Manaus,Inland Center of Trade,No Estate,0.25,3,0.07,0,0,0,12,181,9,34,852
